[19:52:37] INFO: Umbra 3 Optimizer version 3.3.22  (build: aa99894236119ba2e0eac5ca04d0133b3067a375)
[19:52:37] INFO: T: 20 O: 5 H: 0.25 B: 100
[19:52:37] INFO: Tile grid 8x4x12 (at -4,0,-8) created for scene: 6 tiles (0 empties not included) in 0.000 seconds
[19:52:37] INFO: Using 32 threads to compute 6 tiles, cache 4096 MB
[19:52:37] INFO: Tile processing complete, computed 6 tiles
[19:52:37] INFO: Strict view volumes: no
[19:52:37] INFO: Filtered 0/3 inside clusters
[19:52:37] INFO: Filtered 0/3 global clusters
[19:52:37] INFO: 45/45 cells reachable after global analysis
[19:52:37] INFO: collapsed leaf tiles 6 => 1
[19:52:37] INFO: Generating LOD tiles using 32 threads
[19:52:37] INFO: Connecting LOD tiles
[19:52:37] INFO: Compressing lists
[19:52:37] INFO: Average index range size: 1.43
[19:52:37] INFO: object list: 4 B, cluster list: 0 B
[19:52:37] INFO: created tome with 1 tiles, 3 targets and 0 gates
[19:52:37] INFO: Checking cache...
[19:52:37] INFO: Cache check finished
[19:52:37] DEBUG: Total allocations 12599, peak 402 (size 199 kB 701 B)
