%YAML 1.1
%TAG !u! tag:unity3d.com,2011:
--- !u!1045 &1
EditorBuildSettings:
  m_ObjectHideFlags: 0
  serializedVersion: 2
  m_Scenes:
  - enabled: 1
    path: Assets/Scenes/MenuScene.unity
    guid: f7f3a4cb961d3144983395ab97c5386e
  - enabled: 1
    path: Assets/Scenes/GameScene.unity
    guid: 1c40ed667e2dc3743bf995c9c9de3194
  - enabled: 1
    path: Assets/Scenes/new/End menu.unity
    guid: ce9e689707f5db044b8502c2519f6c0f
  m_configObjects: {}
